{
  "tests" : [ {
    "name" : "sale.gspec",
    "startedAt" : 1573654547317,
    "endedAt" : 1573654560356,
    "failed" : false,
    "statistic" : {
      "passed" : 22,
      "errors" : 0,
      "warnings" : 0,
      "total" : 22
    },
    "testId" : "1-sale.gspec",
    "duration" : 13039,
    "failed" : false
  } ]
}