{
  "tests" : [ {
    "name" : "pocetna_768px_1_slika_u_redu.gspec",
    "startedAt" : 1573654836762,
    "endedAt" : 1573654851412,
    "failed" : false,
    "statistic" : {
      "passed" : 79,
      "errors" : 0,
      "warnings" : 0,
      "total" : 79
    },
    "testId" : "1-pocetna-768px-1-slika-u-redu.gspec",
    "duration" : 14650,
    "failed" : false
  } ]
}