{
  "tests" : [ {
    "name" : "mobileUnos.gspec",
    "startedAt" : 1573654736610,
    "endedAt" : 1573654749893,
    "failed" : false,
    "statistic" : {
      "passed" : 21,
      "errors" : 0,
      "warnings" : 0,
      "total" : 21
    },
    "testId" : "1-mobileunos.gspec",
    "duration" : 13283,
    "failed" : false
  } ]
}